#,Club,Club,Competition,Expenditures,Arrivals,Income,Departures,Balance
1,,SSC Napoli,Serie A,"88,95 Mill. €",58,"72,70 Mill. €",32,"-16,25 Mill. €"
2,,AS Roma,Serie A,"69,19 Mill. €",55,"108,85 Mill. €",38,"39,66 Mill. €"
3,,ACF Fiorentina,Serie A,"53,30 Mill. €",43,"41,15 Mill. €",31,"-12,15 Mill. €"
4,,Juventus FC,Serie A,"41,99 Mill. €",61,"52,35 Mill. €",39,"10,36 Mill. €"
5,,FC Internazionale,Serie A,"38,10 Mill. €",57,"9,75 Mill. €",36,"-28,35 Mill. €"
6,,AC Milan,Serie A,"34,50 Mill. €",67,"17,40 Mill. €",39,"-17,10 Mill. €"
7,,US Sassuolo,Serie A,"29,00 Mill. €",35,"5,00 Mill. €",26,"-24,00 Mill. €"
8,,SS Lazio,Serie A,"26,80 Mill. €",36,"8,45 Mill. €",22,"-18,35 Mill. €"
9,,Genoa CFC,Serie A,"23,29 Mill. €",82,"23,03 Mill. €",57,-254 Th. €
10,,Udinese Calcio,Serie A,"17,51 Mill. €",74,"47,70 Mill. €",47,"30,19 Mill. €"
11,,UC Sampdoria,Serie A,"16,55 Mill. €",72,"29,15 Mill. €",40,"12,60 Mill. €"
12,,US Palermo,Serie B,"11,39 Mill. €",60,"21,50 Mill. €",43,"10,11 Mill. €"
13,,Parma FC,Serie A,"10,30 Mill. €",325,"22,21 Mill. €",180,"11,91 Mill. €"
14,,Torino FC,Serie A,"9,65 Mill. €",33,"17,80 Mill. €",25,"8,15 Mill. €"
15,,Atalanta BC,Serie A,"9,35 Mill. €",56,"6,20 Mill. €",29,"-3,15 Mill. €"
16,,Hellas Verona,Serie A,"8,10 Mill. €",62,-,43,"-8,10 Mill. €"
17,,Calcio Catania,Serie A,"7,87 Mill. €",45,"11,00 Mill. €",37,"3,13 Mill. €"
18,,Delfino Pescara 1936,Serie B,"6,93 Mill. €",51,"13,50 Mill. €",46,"6,57 Mill. €"
19,,Ternana Calcio,Serie B,"6,50 Mill. €",17,-,23,"-6,50 Mill. €"
20,,Bologna FC 1909,Serie A,"4,40 Mill. €",66,"8,45 Mill. €",40,"4,05 Mill. €"
21,,AC Siena,Serie B,"4,30 Mill. €",60,"7,05 Mill. €",55,"2,75 Mill. €"
22,,Chievo Verona,Serie A,"3,90 Mill. €",73,"5,20 Mill. €",51,"1,30 Mill. €"
23,,AS Livorno,Serie A,"3,82 Mill. €",44,600 Th. €,37,"-3,22 Mill. €"
24,,Juventus Primavera,Primavera A,"2,80 Mill. €",40,"2,97 Mill. €",30,168 Th. €
25,,Inter Milan Primavera,Primavera B,"2,52 Mill. €",65,"1,75 Mill. €",32,-770 Th. €
