#,Club,Club,Competition,Expenditures,Arrivals,Income,Departures,Balance
1,,Bayern Munich,Bundesliga,"75,70 Mill. €",17,"21,95 Mill. €",7,"-53,75 Mill. €"
2,,Hamburger SV,Bundesliga,"30,00 Mill. €",19,"7,25 Mill. €",15,"-22,75 Mill. €"
3,,VfL Wolfsburg,Bundesliga,"22,30 Mill. €",17,"2,90 Mill. €",11,"-19,40 Mill. €"
4,,VfB Stuttgart,Bundesliga,"17,60 Mill. €",12,"30,00 Mill. €",7,"12,40 Mill. €"
5,,TSG 1899 Hoffenheim,Bundesliga,"16,25 Mill. €",14,25 Th. €,8,"-16,23 Mill. €"
6,,SV Werder Bremen,Bundesliga,"12,45 Mill. €",16,"32,38 Mill. €",11,"19,93 Mill. €"
7,,1. FC Köln,Bundesliga,"11,00 Mill. €",11,750 Th. €,7,"-10,25 Mill. €"
8,,Borussia Dortmund,Bundesliga,"10,90 Mill. €",15,"6,35 Mill. €",8,"-4,55 Mill. €"
9,,Borussia Mönchengladbach,Bundesliga,"10,50 Mill. €",11,"8,40 Mill. €",9,"-2,10 Mill. €"
10,,Bayer 04 Leverkusen,Bundesliga,"6,55 Mill. €",15,900 Th. €,11,"-5,65 Mill. €"
11,,FC Schalke 04,Bundesliga,"5,00 Mill. €",16,"4,20 Mill. €",5,-800 Th. €
12,,Hertha BSC,Bundesliga,"3,71 Mill. €",15,"8,55 Mill. €",18,"4,84 Mill. €"
13,,TSV 1860 Munich,2.Bundesliga,"3,10 Mill. €",16,"5,30 Mill. €",16,"2,20 Mill. €"
14,,1.FSV Mainz 05,Bundesliga,"2,23 Mill. €",9,-,9,"-2,23 Mill. €"
15,,SC Freiburg,Bundesliga,"1,65 Mill. €",12,370 Th. €,7,"-1,28 Mill. €"
16,,Karlsruher SC,2.Bundesliga,"1,60 Mill. €",11,"4,23 Mill. €",16,"2,63 Mill. €"
17,,FC Energie Cottbus,2.Bundesliga,"1,55 Mill. €",13,"1,40 Mill. €",20,-150 Th. €
18,,Eintracht Frankfurt,Bundesliga,"1,25 Mill. €",13,450 Th. €,6,-800 Th. €
19,,VfL Bochum,Bundesliga,"1,20 Mill. €",8,-,9,"-1,20 Mill. €"
20,,Alemannia Aachen,2.Bundesliga,"1,05 Mill. €",9,"3,10 Mill. €",9,"2,05 Mill. €"
21,,Hannover 96,Bundesliga,950 Th. €,7,200 Th. €,9,-750 Th. €
22,,FC St. Pauli,2.Bundesliga,850 Th. €,8,250 Th. €,9,-600 Th. €
23,,FC Augsburg,2.Bundesliga,750 Th. €,14,150 Th. €,17,-600 Th. €
24,,Fortuna Düsseldorf,2.Bundesliga,750 Th. €,8,-,11,-750 Th. €
25,,Arminia Bielefeld,2.Bundesliga,690 Th. €,10,"1,95 Mill. €",11,"1,26 Mill. €"
